{
    "retailerName" : "bigbrandbeds",
    "userName" : "test",
    "password" : "Compass1!",

    "goodsDescription" : "Wardrobe",
    "totalCost" : "500",
    "deposit" : "50",
    "numOfRepayments" : "10",
    "expectedMonthlyPayment" : "£45",

    "title" : "Mrs",
    "firstName" : "Betty",
    "middleName" : null,
    "lastName" : "Brown",
    "formerName" : "TTTPA",
    "maritalStatus" : "Married",
    "dateOfBirth": 
        {
            "dobDay" : "04",
            "dobMonth" : "02",
            "dobYear" : "1990"
        },
    "emailAddress": "test@test.com",
    "phoneNumber": "0190412346",
    "addressStatus": "Tenant furnished",
    "addressPostcode": "YO24 4QB",
    "address": "88 KINGSWAY WEST, YORK, YO24 4QB",
    "atAddressFrom":
        {
            "month": "11",
            "year":"2011"
        },
    "deliveryRequired": "Yes, to current address",
    "employentStatus": "Employed",
    "totalAnnualIncome": "30000",
    "numberofDependents": "1",
    "spouseEmploymentStatus": null,
    "accountName":"B Brown",
    "sortCode": "070116",
    "accountNumber":"12345678"
}


